{
	"info": {
		"_postman_id": "c568175c-9fe2-4b71-bda9-7c0289f68bda",
		"name": "Cloud_Jobs_API",
		"schema": "https://schema.getpostman.com/json/collection/v2.1.0/collection.json",
		"_exporter_id": "20369714"
	},
	"item": [
		{
			"name": "GET-/cloud-jobs/position",
			"request": {
				"method": "GET",
				"header": [],
				"url": {
					"raw": "https://7bvsp8jf8j.execute-api.us-east-1.amazonaws.com/dev/cloud-jobs/position?limit=20&page=1&name=de&stringency=contains",
					"protocol": "https",
					"host": [
						"7bvsp8jf8j",
						"execute-api",
						"us-east-1",
						"amazonaws",
						"com"
					],
					"path": [
						"dev",
						"cloud-jobs",
						"position"
					],
					"query": [
						{
							"key": "limit",
							"value": "20"
						},
						{
							"key": "page",
							"value": "1"
						},
						{
							"key": "name",
							"value": "de"
						},
						{
							"key": "stringency",
							"value": "contains",
							"description": "contains or exactly"
						}
					]
				}
			},
			"response": []
		},
		{
			"name": "POST-/cloud-jobs/position",
			"request": {
				"method": "POST",
				"header": [],
				"body": {
					"mode": "raw",
					"raw": "{\r\n    \"name\": \"Coordinador de Proyectos\",\r\n    \"description\": \"Encargado de planificar, ejecutar y supervisar proyectos para lograr objetivos específicos.\"\r\n  }",
					"options": {
						"raw": {
							"language": "json"
						}
					}
				},
				"url": {
					"raw": "https://7bvsp8jf8j.execute-api.us-east-1.amazonaws.com/dev/cloud-jobs/position",
					"protocol": "https",
					"host": [
						"7bvsp8jf8j",
						"execute-api",
						"us-east-1",
						"amazonaws",
						"com"
					],
					"path": [
						"dev",
						"cloud-jobs",
						"position"
					]
				}
			},
			"response": []
		},
		{
			"name": "DELETE-/cloud-jobs/position",
			"request": {
				"method": "DELETE",
				"header": [],
				"body": {
					"mode": "raw",
					"raw": "{\r\n    \"name\": \"Coordinador de Proyectos\",\r\n    \"description\": \"Encargado de planificar, ejecutar y supervisar proyectos para lograr objetivos específicos.\"\r\n  }",
					"options": {
						"raw": {
							"language": "json"
						}
					}
				},
				"url": {
					"raw": "https://7bvsp8jf8j.execute-api.us-east-1.amazonaws.com/dev/cloud-jobs/position/656fa3e6bdb0e8a873471c10",
					"protocol": "https",
					"host": [
						"7bvsp8jf8j",
						"execute-api",
						"us-east-1",
						"amazonaws",
						"com"
					],
					"path": [
						"dev",
						"cloud-jobs",
						"position",
						"656fa3e6bdb0e8a873471c10"
					]
				}
			},
			"response": []
		},
		{
			"name": "GET-/cloud-jobs/position/{id}",
			"request": {
				"method": "GET",
				"header": [],
				"url": {
					"raw": "https://7bvsp8jf8j.execute-api.us-east-1.amazonaws.com/dev/cloud-jobs/position/656fa3e6bdb0e8a873471c10",
					"protocol": "https",
					"host": [
						"7bvsp8jf8j",
						"execute-api",
						"us-east-1",
						"amazonaws",
						"com"
					],
					"path": [
						"dev",
						"cloud-jobs",
						"position",
						"656fa3e6bdb0e8a873471c10"
					]
				}
			},
			"response": []
		},
		{
			"name": "PUT-/cloud-jobs/position/{id}",
			"request": {
				"method": "PUT",
				"header": [],
				"body": {
					"mode": "raw",
					"raw": "{\r\n    \"name\": \"Analista de Datos\",\r\n    \"description\": \"Responsable de analizar conjuntos de datos para obtener información relevante y tomar decisiones.\"\r\n}",
					"options": {
						"raw": {
							"language": "json"
						}
					}
				},
				"url": {
					"raw": "https://7bvsp8jf8j.execute-api.us-east-1.amazonaws.com/dev/cloud-jobs/position/656fa280bdb0e8a873471bf9",
					"protocol": "https",
					"host": [
						"7bvsp8jf8j",
						"execute-api",
						"us-east-1",
						"amazonaws",
						"com"
					],
					"path": [
						"dev",
						"cloud-jobs",
						"position",
						"656fa280bdb0e8a873471bf9"
					]
				}
			},
			"response": []
		},
		{
			"name": "POST-/cloud-jobs/employee",
			"request": {
				"method": "POST",
				"header": [],
				"body": {
					"mode": "raw",
					"raw": "{\r\n    \"name\": \"Ava Lee\",\r\n    \"nationalIdentityCard\": 741852963,\r\n    \"age\": 31,\r\n    \"position\": {\r\n        \"id\": \"656f66aff8d3555d9ee1acdb\"\r\n    }\r\n}",
					"options": {
						"raw": {
							"language": "json"
						}
					}
				},
				"url": {
					"raw": "https://7bvsp8jf8j.execute-api.us-east-1.amazonaws.com/dev/cloud-jobs/employee",
					"protocol": "https",
					"host": [
						"7bvsp8jf8j",
						"execute-api",
						"us-east-1",
						"amazonaws",
						"com"
					],
					"path": [
						"dev",
						"cloud-jobs",
						"employee"
					]
				}
			},
			"response": []
		},
		{
			"name": "GET-/cloud-jobs/employee",
			"request": {
				"method": "GET",
				"header": [],
				"url": {
					"raw": "https://7bvsp8jf8j.execute-api.us-east-1.amazonaws.com/dev/cloud-jobs/employee?name=John&stringency=contains&limit=20&page=1",
					"protocol": "https",
					"host": [
						"7bvsp8jf8j",
						"execute-api",
						"us-east-1",
						"amazonaws",
						"com"
					],
					"path": [
						"dev",
						"cloud-jobs",
						"employee"
					],
					"query": [
						{
							"key": "name",
							"value": "John"
						},
						{
							"key": "stringency",
							"value": "contains"
						},
						{
							"key": "limit",
							"value": "20"
						},
						{
							"key": "page",
							"value": "1"
						}
					]
				}
			},
			"response": []
		},
		{
			"name": "PUT-/cloud-jobs/employee/{id}",
			"request": {
				"method": "PUT",
				"header": [],
				"body": {
					"mode": "raw",
					"raw": "{\r\n    \"name\": \"Sophia Garcia\",\r\n    \"nationalIdentityCard\": 654987321,\r\n    \"age\": 22,\r\n    \"position\": {\r\n        \"id\": \"656fa276bdb0e8a873471bf6\"\r\n    }\r\n}",
					"options": {
						"raw": {
							"language": "json"
						}
					}
				},
				"url": {
					"raw": "https://7bvsp8jf8j.execute-api.us-east-1.amazonaws.com/dev/cloud-jobs/employee/656fa829db98b417aa83f539",
					"protocol": "https",
					"host": [
						"7bvsp8jf8j",
						"execute-api",
						"us-east-1",
						"amazonaws",
						"com"
					],
					"path": [
						"dev",
						"cloud-jobs",
						"employee",
						"656fa829db98b417aa83f539"
					]
				}
			},
			"response": []
		},
		{
			"name": "GET-/cloud-jobs/employee/{id}",
			"request": {
				"method": "GET",
				"header": [],
				"url": {
					"raw": "https://7bvsp8jf8j.execute-api.us-east-1.amazonaws.com/dev/cloud-jobs/employee/656fa829db98b417aa83f539",
					"protocol": "https",
					"host": [
						"7bvsp8jf8j",
						"execute-api",
						"us-east-1",
						"amazonaws",
						"com"
					],
					"path": [
						"dev",
						"cloud-jobs",
						"employee",
						"656fa829db98b417aa83f539"
					]
				}
			},
			"response": []
		},
		{
			"name": "DELETE-/cloud-jobs/employee/{id}",
			"request": {
				"method": "DELETE",
				"header": [],
				"url": {
					"raw": "https://7bvsp8jf8j.execute-api.us-east-1.amazonaws.com/dev/cloud-jobs/employee/656fac18db98b417aa83f566",
					"protocol": "https",
					"host": [
						"7bvsp8jf8j",
						"execute-api",
						"us-east-1",
						"amazonaws",
						"com"
					],
					"path": [
						"dev",
						"cloud-jobs",
						"employee",
						"656fac18db98b417aa83f566"
					]
				}
			},
			"response": []
		}
	]
}